// Jest Snapshot v1, https://goo.gl/fbAQLP

exports[`<Footer /> renders default 1`] = `
<DocumentFragment>
  <div
    class="footer"
  >
    © Pay-Baymax 2018
  </div>
</DocumentFragment>
`;

exports[`<Footer /> should render "©Pay-Baymax 2019" 1`] = `
<DocumentFragment>
  <div
    class="footer"
  >
    © Pay-Baymax 2018
  </div>
</DocumentFragment>
`;
