// Jest Snapshot v1, https://goo.gl/fbAQLP

exports[`<RequestLoader /> render default 1`] = `
<DocumentFragment>
  <div
    class="loading string"
  >
    loadingText ...
  </div>
</DocumentFragment>
`;
