// Jest Snapshot v1, https://goo.gl/fbAQLP

exports[`<PageRoute /> renders default 1`] = `
<DocumentFragment>
  <div
    class="header"
  >
    <img
      class="logo"
      src="/images/logo.png"
    />
    <div
      class="header-r"
    >
      <button
        class="btn btn-link pull-right"
        type="button"
      >
        <a
          href="/login"
        >
          Login
        </a>
      </button>
      <button
        class="btn btn-link pull-right"
        type="button"
      >
        <a
          href="/i-am-a-random-url"
        >
          404 Not found
        </a>
      </button>
    </div>
  </div>
  <div
    class="page-container"
  >
    <div
      class="nav"
    >
      <div
        class="nav-group"
      >
        <div
          class="nav-item"
        >
          <button
            class="btn btn-default pull-right btn-info"
            type="button"
          >
             Reset Filter 
          </button>
          <button
            class="btn btn-default pull-right"
            type="button"
          >
             Filter 
          </button>
        </div>
      </div>
    </div>
    <div
      class="loading"
    >
      Fetching details ...
    </div>
  </div>
  <div
    class="footer"
  >
    © Pay-Baymax 2018
  </div>
</DocumentFragment>
`;
